EDA
…
NA Values

Lets see how many missing values we have.

# Looking at number of missing values
count_na <- hospice %>% 
  summarise_all(funs(sum(is.na(.)))) %>%
  gather(count_na) %>% 
  arrange(desc(value)) %>%
  filter(value > 0)
count_na

## # A tibble: 52 x 2
##    count_na  value
##    <chr>     <int>
##  1 PAINSTOS   9405
##  2 WHRDSCHOS  9404
##  3 PROCDX5    9404
##  4 OTHSR2OS   9404
##  5 CDDX16     9402
##  6 OTHPMTOS   9400
##  7 MCFEE2OS   9399
##  8 PSTHMEOS   9397
##  9 OTHSVCOS   9396
## 10 PROCDX4    9395
## # ... with 42 more rows
…
